{
  "id": "referenceapplication.registerPatient.Register",
  "instanceOf": "registrationapp.registerPatient",
  "label": "Patient Details",
  "description": "Fill in the patients general details",
  "extensions": [
    {
      "id": "referenceapplication.registrationapp.registerPatient.homepageLink",
      "extensionPointId": "org.openmrs.referenceapplication.homepageLink",
      "type": "link",
      "label": "referenceapplication.app.registerPatient.label",
      "url": "registrationapp/registerPatient.page?appId=referenceapplication.registerPatient.Register",
      "icon": "icon-user",
      "order": 1,
      "requiredPrivilege": "App: registrationapp.registerPatient"
    },
    {
      "id": "application.registrationapp.summary.editPatientLink",
      "extensionPointId": "patientDashboard.overallActions",
      "type": "link",
      "label": "referenceapplication.app.editRegistrationInfo.label",
      "url": "registrationapp/registrationSummary.page?patientId={{patient.uuid}}&appId=referenceapplication.registrationapp.registerPatient",
      "icon": "icon-pencil",
      "order": 25,
      "requiredPrivilege": "App: registrationapp.registerPatient"
    }
  ],
  "config": {
    "allowUnknownPatients": false,
    "afterCreatedUrl": "/coreapps/clinicianfacing/patient.page?patientId={{patientId}}",
    "sections": [
      {
        "id": "patient-ids",
        "label": "Patient-Identifier",
        "questions": [
          {
            "legend": "ID number",
            "id": "ID_Number_patientIdentifier",
            "fields": [
              {
                "type": "patientIdentifier",
                "label": "ID number",
                "formFieldName": "idNumber",
                "uuid": "cbd9b771-6ed4-4719-b049-c3ecc46353f6",
                "widget": {
                  "providerName": "uicommons",
                  "fragmentId": "field/text"
                },
                "cssClasses": [
                  "required"
                ]
              }
            ]
          }
        ]
      },
      {
        "id": "contactInfo",
        "label": "registrationapp.patient.contactInfo.label",
        "questions": [
          {
            "legend": "Home address",
            "fields": [
              {
                "type": "personAddress",
                "label": "Home address",
                "formFieldName": "homeAddress",
                "widget": {
                  "providerName": "uicommons",
                  "fragmentId": "field/personAddress"
                },
                "cssClasses": [
                  "required"
                ]
              }
            ]
          },
          {
            "legend": "Email",
            "id": "email",
            "fields": [
              {
                "type": "personAttribute",
                "label": "Email",
                "formFieldName": "email",
                "uuid": "aa3174b1-efa8-4efd-b504-7d78f49a3181",
                "widget": {
                  "providerName": "uicommons",
                  "fragmentId": "field/text"
                },
                "cssClasses": [
                  "email"
                ]
              }
            ]
          },
          {
            "legend": "Contact number",
            "id": "contactNumberLabel",
            "fields": [
              {
                "type": "personAttribute",
                "label": "Contact number",
                "formFieldName": "contactNumber",
                "uuid": "14d4f066-15f5-102d-96e4-000c29c2a5d7",
                "widget": {
                  "providerName": "uicommons",
                  "fragmentId": "field/text"
                },
                "cssClasses": [
                  "phone",
                  "required"
                ]
              }
            ]
          },
          {
            "legend": "Occupation",
            "id": "occupation",
            "fields": [
              {
                "type": "personAttribute",
                "label": "Occupation",
                "formFieldName": "occupation",
                "uuid": "d34ba619-7494-4d26-a038-e1975b2bf3b2",
                "widget": {
                  "providerName": "uicommons",
                  "fragmentId": "field/text"
                },
                "cssClasses": [
                  "required"
                ]
              }
            ]
          },
          {
            "legend": "Name of employer",
            "id": "nameOfEmployer",
            "fields": [
              {
                "type": "personAttribute",
                "label": "Name of employer",
                "formFieldName": "nameOfEmployer",
                "uuid": "530b1383-012d-4285-8b9c-331c4306b34c",
                "widget": {
                  "providerName": "uicommons",
                  "fragmentId": "field/text"
                },
                "cssClasses": [
                  "required"
                ]
              }
            ]
          }
        ]
      },
      {
        "id": "relationships-info",
        "label": "Next of kin details",
        "questions": [
          {
            "legend": "Next of kin",
            "id": "ID_NextOfkin",
            "fields": [
              {
                "type": "personRelationships",
                "widget": {
                  "providerName": "registrationapp",
                  "fragmentId": "field/personRelationship"
                }
              }
            ]
          }
        ]
      }
    ]
  }
}