Uuid,Void/Retire,Name,Description,Format,Foreign uuid,Searchable,Edit privilege,_order:1000
aa3174b1-efa8-4efd-b504-7d78f49a3181,,Email,Email Address,java.lang.String,,,,
530b1383-012d-4285-8b9c-331c4306b34c,,Name of employer,Name Of Employer,java.lang.String,,,,
d34ba619-7494-4d26-a038-e1975b2bf3b2,,Occupation,Patient’s Occupation,java.lang.String,,,,
